^C:\USERS\KUTYC\DESKTOP\KĨ THUẬT LẬP TRÌNH\LÀM QUEN OOP\NHAP\DEBUG\SOURCE.OBJ
C:\USERS\KUTYC\DESKTOP\Kĩ THUậT LậP TRìNH\LàM QUEN OOP\DEBUG\NHAP.ILK
C:\USERS\KUTYC\DESKTOP\Kĩ THUậT LậP TRìNH\LàM QUEN OOP\DEBUG\NHAP.EXE
C:\USERS\KUTYC\DESKTOP\KĨ THUẬT LẬP TRÌNH\LÀM QUEN OOP\DEBUG\NHAP.PDB
