^C:\USERS\KUTYC\DESKTOP\KĨ THUẬT LẬP TRÌNH\GAME CONSOLE\NHAP\RELEASE\SOURCE.OBJ
C:\USERS\KUTYC\DESKTOP\Kĩ THUậT LậP TRìNH\GAME CONSOLE\RELEASE\NHAP.EXE
C:\USERS\KUTYC\DESKTOP\KĨ THUẬT LẬP TRÌNH\GAME CONSOLE\RELEASE\NHAP.PDB
