﻿Build started 6/21/2017 12:34:42 PM.
     1>Project "C:\Users\kutyc\Desktop\Kĩ thuật lập trình\Nháp\Nhap4\Nhap4.vcxproj" on node 2 (Build target(s)).
     1>ClCompile:
         C:\Program Files (x86)\Microsoft Visual Studio 12.0\VC\bin\CL.exe /c /ZI /nologo /W3 /WX- /sdl /Od /Oy- /D WIN32 /D _DEBUG /D _CONSOLE /D _LIB /D _UNICODE /D UNICODE /Gm /EHsc /RTC1 /MDd /GS /fp:precise /Zc:wchar_t /Zc:forScope /Fo"Debug\\" /Fd"Debug\vc120.pdb" /Gd /TP /analyze- /errorReport:prompt Source.cpp
         Source.cpp
       Link:
         C:\Program Files (x86)\Microsoft Visual Studio 12.0\VC\bin\link.exe /ERRORREPORT:PROMPT /OUT:"C:\Users\kutyc\Desktop\Kĩ thuật lập trình\Nháp\Debug\Nhap4.exe" /INCREMENTAL /NOLOGO kernel32.lib user32.lib gdi32.lib winspool.lib comdlg32.lib advapi32.lib shell32.lib ole32.lib oleaut32.lib uuid.lib odbc32.lib odbccp32.lib /MANIFEST /MANIFESTUAC:"level='asInvoker' uiAccess='false'" /manifest:embed /DEBUG /PDB:"C:\Users\kutyc\Desktop\Kĩ thuật lập trình\Nháp\Debug\Nhap4.pdb" /SUBSYSTEM:CONSOLE /TLBID:1 /DYNAMICBASE /NXCOMPAT /IMPLIB:"C:\Users\kutyc\Desktop\Kĩ thuật lập trình\Nháp\Debug\Nhap4.lib" /MACHINE:X86 Debug\Source.obj
         Nhap4.vcxproj -> C:\Users\kutyc\Desktop\Kĩ thuật lập trình\Nháp\Debug\Nhap4.exe
     1>Done Building Project "C:\Users\kutyc\Desktop\Kĩ thuật lập trình\Nháp\Nhap4\Nhap4.vcxproj" (Build target(s)).

Build succeeded.

Time Elapsed 00:00:00.74
