  ________                        ________                     
 /  _____/_____    _____   ____   \_____  \___  __ ___________ 
/   \  ___\__  \  /     \_/ __ \   /   |   \  \/ // __ \_  __ \
\    \_\  \/ __ \|  Y Y  \  ___/  /    |    \   /\  ___/|  | \/
 \______  (____  /__|_|  /\___  > \_______  /\_/  \___  >__|   
        \/     \/      \/     \/          \/          \/       
