^C:\USERS\KUTYC\DESKTOP\KĨ THUẬT LẬP TRÌNH\DEF\DEF\SOURCE.CPP
C:\USERS\KUTYC\DESKTOP\Kĩ THUậT LậP TRìNH\DEF\DEF\DEBUG\VC120.PDB
C:\USERS\KUTYC\DESKTOP\Kĩ THUậT LậP TRìNH\DEF\DEF\DEBUG\VC120.IDB
C:\USERS\KUTYC\DESKTOP\Kĩ THUậT LậP TRìNH\DEF\DEF\DEBUG\SOURCE.OBJ
