^C:\USERS\KUTYC\DESKTOP\KĨ THUẬT LẬP TRÌNH\DEF\DEF\DEBUG\SOURCE.OBJ
C:\USERS\KUTYC\DESKTOP\Kĩ THUậT LậP TRìNH\DEF\DEBUG\OVERLOADING OPERATOR.ILK
C:\USERS\KUTYC\DESKTOP\Kĩ THUậT LậP TRìNH\DEF\DEBUG\OVERLOADING OPERATOR.EXE
C:\USERS\KUTYC\DESKTOP\KĨ THUẬT LẬP TRÌNH\DEF\DEBUG\OVERLOADING OPERATOR.PDB
