^C:\USERS\KUTYC\DESKTOP\KĨ THUẬT LẬP TRÌNH\LUYỆN TẬP ĐỆ QUY\BÀI4\DEBUG\SOURCE.OBJ
C:\USERS\KUTYC\DESKTOP\Kĩ THUậT LậP TRìNH\LUYệN TậP đệ QUY\DEBUG\BàI4.ILK
C:\USERS\KUTYC\DESKTOP\Kĩ THUậT LậP TRìNH\LUYệN TậP đệ QUY\DEBUG\BàI4.EXE
C:\USERS\KUTYC\DESKTOP\KĨ THUẬT LẬP TRÌNH\LUYỆN TẬP ĐỆ QUY\DEBUG\BÀI4.PDB
