^C:\USERS\KUTYC\DESKTOP\KĨ THUẬT LẬP TRÌNH\CONSTRUCTOR AND DESTRUCTOR\DESTRUCTOR\DEBUG\SOURCE.OBJ
C:\USERS\KUTYC\DESKTOP\Kĩ THUậT LậP TRìNH\CONSTRUCTOR AND DESTRUCTOR\DEBUG\DESTRUCTOR.ILK
C:\USERS\KUTYC\DESKTOP\Kĩ THUậT LậP TRìNH\CONSTRUCTOR AND DESTRUCTOR\DEBUG\DESTRUCTOR.EXE
C:\USERS\KUTYC\DESKTOP\KĨ THUẬT LẬP TRÌNH\CONSTRUCTOR AND DESTRUCTOR\DEBUG\DESTRUCTOR.PDB
