^C:\USERS\KUTYC\DESKTOP\KĨ THUẬT LẬP TRÌNH\LINKED LIST\LÀM QUEN VỚI LINKED LIST\DEBUG\SOURCE.OBJ
C:\USERS\KUTYC\DESKTOP\Kĩ THUậT LậP TRìNH\LINKED LIST\DEBUG\LàM QUEN VớI LINKED LIST.ILK
C:\USERS\KUTYC\DESKTOP\Kĩ THUậT LậP TRìNH\LINKED LIST\DEBUG\LàM QUEN VớI LINKED LIST.EXE
C:\USERS\KUTYC\DESKTOP\KĨ THUẬT LẬP TRÌNH\LINKED LIST\DEBUG\LÀM QUEN VỚI LINKED LIST.PDB
