^C:\USERS\KUTYC\DESKTOP\CMPT225\ASSIGNMENT2\ASSIGNMENT2\GENERICLINKEDLISTSTACK.CPP
/c /ZI /nologo /W3 /WX- /sdl /Od /Oy- /D WIN32 /D _DEBUG /D _CONSOLE /D _LIB /D _UNICODE /D UNICODE /Gm /EHsc /RTC1 /MDd /GS /fp:precise /Zc:wchar_t /Zc:forScope /Fo"DEBUG\\" /Fd"DEBUG\VC120.PDB" /Gd /TP /analyze- C:\USERS\KUTYC\DESKTOP\CMPT225\ASSIGNMENT2\ASSIGNMENT2\GENERICLINKEDLISTSTACK.CPP
^C:\USERS\KUTYC\DESKTOP\CMPT225\ASSIGNMENT2\ASSIGNMENT2\SOURCE.CPP
/c /ZI /nologo /W3 /WX- /sdl /Od /Oy- /D WIN32 /D _DEBUG /D _CONSOLE /D _LIB /D _UNICODE /D UNICODE /Gm /EHsc /RTC1 /MDd /GS /fp:precise /Zc:wchar_t /Zc:forScope /Fo"DEBUG\\" /Fd"DEBUG\VC120.PDB" /Gd /TP /analyze- C:\USERS\KUTYC\DESKTOP\CMPT225\ASSIGNMENT2\ASSIGNMENT2\SOURCE.CPP
^C:\USERS\KUTYC\DESKTOP\CMPT225\ASSIGNMENT2\ASSIGNMENT2\POSTFIXUTILITY.CPP
/c /ZI /nologo /W3 /WX- /sdl /Od /Oy- /D WIN32 /D _DEBUG /D _CONSOLE /D _LIB /D _UNICODE /D UNICODE /Gm /EHsc /RTC1 /MDd /GS /fp:precise /Zc:wchar_t /Zc:forScope /Fo"DEBUG\\" /Fd"DEBUG\VC120.PDB" /Gd /TP /analyze- C:\USERS\KUTYC\DESKTOP\CMPT225\ASSIGNMENT2\ASSIGNMENT2\POSTFIXUTILITY.CPP
