^C:\USERS\KUTYC\DESKTOP\KĨ THUẬT LẬP TRÌNH\CONSTRUCTOR AND DESTRUCTOR\COPY CONSTRUCTOR\DEBUG\SOURCE.OBJ
C:\USERS\KUTYC\DESKTOP\Kĩ THUậT LậP TRìNH\CONSTRUCTOR AND DESTRUCTOR\DEBUG\COPY CONSTRUCTOR.ILK
C:\USERS\KUTYC\DESKTOP\Kĩ THUậT LậP TRìNH\CONSTRUCTOR AND DESTRUCTOR\DEBUG\COPY CONSTRUCTOR.EXE
C:\USERS\KUTYC\DESKTOP\KĨ THUẬT LẬP TRÌNH\CONSTRUCTOR AND DESTRUCTOR\DEBUG\COPY CONSTRUCTOR.PDB
