^C:\USERS\KUTYC\DESKTOP\KĨ THUẬT LẬP TRÌNH\TẬP TIN\BÀI 4\DEBUG\SOURCE4.OBJ
C:\USERS\KUTYC\DESKTOP\Kĩ THUậT LậP TRìNH\TậP TIN\DEBUG\BàI 4.ILK
C:\USERS\KUTYC\DESKTOP\Kĩ THUậT LậP TRìNH\TậP TIN\DEBUG\BàI 4.EXE
C:\USERS\KUTYC\DESKTOP\KĨ THUẬT LẬP TRÌNH\TẬP TIN\DEBUG\BÀI 4.PDB
