^C:\USERS\KUTYC\DESKTOP\KĨ THUẬT LẬP TRÌNH\GETTER AND SETTER\LUYỆN TẬP\DEBUG\DIEM.OBJ|C:\USERS\KUTYC\DESKTOP\KĨ THUẬT LẬP TRÌNH\GETTER AND SETTER\LUYỆN TẬP\DEBUG\SOURCE.OBJ
C:\USERS\KUTYC\DESKTOP\Kĩ THUậT LậP TRìNH\GETTER AND SETTER\DEBUG\LUYệN TậP.ILK
C:\USERS\KUTYC\DESKTOP\Kĩ THUậT LậP TRìNH\GETTER AND SETTER\DEBUG\LUYệN TậP.EXE
C:\USERS\KUTYC\DESKTOP\KĨ THUẬT LẬP TRÌNH\GETTER AND SETTER\DEBUG\LUYỆN TẬP.PDB
