^C:\USERS\KUTYC\DESKTOP\ALGORITHMS\QUAY LUI\LIỆT KÊ TẬP CON K PHẦN TỬ\SOURCE.CPP
C:\USERS\KUTYC\DESKTOP\ALGORITHMS\QUAY LUI\LIệT Kê TậP CON K PHầN Tử\DEBUG\VC120.PDB
C:\USERS\KUTYC\DESKTOP\ALGORITHMS\QUAY LUI\LIệT Kê TậP CON K PHầN Tử\DEBUG\VC120.IDB
C:\USERS\KUTYC\DESKTOP\ALGORITHMS\QUAY LUI\LIệT Kê TậP CON K PHầN Tử\DEBUG\SOURCE.OBJ
