^C:\USERS\KUTYC\DESKTOP\ALGORITHMS\QUAY LUI\LIỆT KÊ TẬP CON K PHẦN TỬ\DEBUG\SOURCE.OBJ
C:\USERS\KUTYC\DESKTOP\ALGORITHMS\QUAY LUI\DEBUG\LIệT Kê TậP CON K PHầN Tử.ILK
C:\USERS\KUTYC\DESKTOP\ALGORITHMS\QUAY LUI\DEBUG\LIệT Kê TậP CON K PHầN Tử.EXE
C:\USERS\KUTYC\DESKTOP\ALGORITHMS\QUAY LUI\DEBUG\LIỆT KÊ TẬP CON K PHẦN TỬ.PDB
