^C:\USERS\KUTYC\DESKTOP\KĨ THUẬT LẬP TRÌNH\STRUCT\STRUCT\SOURCE.CPP
C:\USERS\KUTYC\DESKTOP\Kĩ THUậT LậP TRìNH\STRUCT\STRUCT\DEBUG\VC141.PDB
C:\USERS\KUTYC\DESKTOP\Kĩ THUậT LậP TRìNH\STRUCT\STRUCT\DEBUG\VC141.IDB
^C:\USERS\KUTYC\DESKTOP\KĨ THUẬT LẬP TRÌNH\STRUCT\STRUCT\DANHSACHMON.CPP|C:\USERS\KUTYC\DESKTOP\KĨ THUẬT LẬP TRÌNH\STRUCT\STRUCT\MONHOC.CPP|C:\USERS\KUTYC\DESKTOP\KĨ THUẬT LẬP TRÌNH\STRUCT\STRUCT\SOURCE.CPP
C:\USERS\KUTYC\DESKTOP\Kĩ THUậT LậP TRìNH\STRUCT\STRUCT\DEBUG\VC141.PDB
C:\USERS\KUTYC\DESKTOP\Kĩ THUậT LậP TRìNH\STRUCT\STRUCT\DEBUG\VC141.IDB
C:\USERS\KUTYC\DESKTOP\Kĩ THUậT LậP TRìNH\STRUCT\STRUCT\DEBUG\DANHSACHMON.OBJ
C:\USERS\KUTYC\DESKTOP\Kĩ THUậT LậP TRìNH\STRUCT\STRUCT\DEBUG\SOURCE.OBJ
^C:\USERS\KUTYC\DESKTOP\KĨ THUẬT LẬP TRÌNH\STRUCT\STRUCT\DANHSACHMON.CPP
C:\USERS\KUTYC\DESKTOP\KĨ THUẬT LẬP TRÌNH\STRUCT\STRUCT\DEBUG\VC141.PDB
C:\USERS\KUTYC\DESKTOP\Kĩ THUậT LậP TRìNH\STRUCT\STRUCT\DEBUG\VC141.IDB
C:\USERS\KUTYC\DESKTOP\Kĩ THUậT LậP TRìNH\STRUCT\STRUCT\DEBUG\DANHSACHMON.OBJ
^C:\USERS\KUTYC\DESKTOP\KĨ THUẬT LẬP TRÌNH\STRUCT\STRUCT\MONHOC.CPP
C:\USERS\KUTYC\DESKTOP\KĨ THUẬT LẬP TRÌNH\STRUCT\STRUCT\DEBUG\VC141.PDB
C:\USERS\KUTYC\DESKTOP\Kĩ THUậT LậP TRìNH\STRUCT\STRUCT\DEBUG\VC141.IDB
C:\USERS\KUTYC\DESKTOP\Kĩ THUậT LậP TRìNH\STRUCT\STRUCT\DEBUG\MONHOC.OBJ
^C:\USERS\KUTYC\DESKTOP\KĨ THUẬT LẬP TRÌNH\STRUCT\STRUCT\LOPHOC.CPP|C:\USERS\KUTYC\DESKTOP\KĨ THUẬT LẬP TRÌNH\STRUCT\STRUCT\MONHOC.CPP|C:\USERS\KUTYC\DESKTOP\KĨ THUẬT LẬP TRÌNH\STRUCT\STRUCT\SINHVIEN.CPP|C:\USERS\KUTYC\DESKTOP\KĨ THUẬT LẬP TRÌNH\STRUCT\STRUCT\SOURCE.CPP
C:\USERS\KUTYC\DESKTOP\Kĩ THUậT LậP TRìNH\STRUCT\STRUCT\DEBUG\VC141.PDB
C:\USERS\KUTYC\DESKTOP\Kĩ THUậT LậP TRìNH\STRUCT\STRUCT\DEBUG\VC141.IDB
C:\USERS\KUTYC\DESKTOP\Kĩ THUậT LậP TRìNH\STRUCT\STRUCT\DEBUG\LOPHOC.OBJ
^C:\USERS\KUTYC\DESKTOP\KĨ THUẬT LẬP TRÌNH\STRUCT\STRUCT\LOPHOC.CPP
C:\USERS\KUTYC\DESKTOP\KĨ THUẬT LẬP TRÌNH\STRUCT\STRUCT\DEBUG\VC141.PDB
^C:\USERS\KUTYC\DESKTOP\KĨ THUẬT LẬP TRÌNH\STRUCT\STRUCT\SINHVIEN.CPP
C:\USERS\KUTYC\DESKTOP\KĨ THUẬT LẬP TRÌNH\STRUCT\STRUCT\DEBUG\VC141.PDB
C:\USERS\KUTYC\DESKTOP\Kĩ THUậT LậP TRìNH\STRUCT\STRUCT\DEBUG\VC141.IDB
^C:\USERS\KUTYC\DESKTOP\KĨ THUẬT LẬP TRÌNH\STRUCT\STRUCT\MONHOC.CPP|C:\USERS\KUTYC\DESKTOP\KĨ THUẬT LẬP TRÌNH\STRUCT\STRUCT\SINHVIEN.CPP|C:\USERS\KUTYC\DESKTOP\KĨ THUẬT LẬP TRÌNH\STRUCT\STRUCT\SOURCE.CPP
C:\USERS\KUTYC\DESKTOP\Kĩ THUậT LậP TRìNH\STRUCT\STRUCT\DEBUG\VC141.PDB
C:\USERS\KUTYC\DESKTOP\Kĩ THUậT LậP TRìNH\STRUCT\STRUCT\DEBUG\VC141.IDB
C:\USERS\KUTYC\DESKTOP\Kĩ THUậT LậP TRìNH\STRUCT\STRUCT\DEBUG\SOURCE.OBJ
^C:\USERS\KUTYC\DESKTOP\KĨ THUẬT LẬP TRÌNH\STRUCT\STRUCT\MONHOC.CPP|C:\USERS\KUTYC\DESKTOP\KĨ THUẬT LẬP TRÌNH\STRUCT\STRUCT\SINHVIEN.CPP
C:\USERS\KUTYC\DESKTOP\Kĩ THUậT LậP TRìNH\STRUCT\STRUCT\DEBUG\VC141.PDB
C:\USERS\KUTYC\DESKTOP\Kĩ THUậT LậP TRìNH\STRUCT\STRUCT\DEBUG\VC141.IDB
C:\USERS\KUTYC\DESKTOP\Kĩ THUậT LậP TRìNH\STRUCT\STRUCT\DEBUG\MONHOC.OBJ
C:\USERS\KUTYC\DESKTOP\Kĩ THUậT LậP TRìNH\STRUCT\STRUCT\DEBUG\SINHVIEN.OBJ
^C:\USERS\KUTYC\DESKTOP\KĨ THUẬT LẬP TRÌNH\STRUCT\STRUCT\DANHSACHMON.CPP|C:\USERS\KUTYC\DESKTOP\KĨ THUẬT LẬP TRÌNH\STRUCT\STRUCT\LOPHOC.CPP|C:\USERS\KUTYC\DESKTOP\KĨ THUẬT LẬP TRÌNH\STRUCT\STRUCT\MONHOC.CPP|C:\USERS\KUTYC\DESKTOP\KĨ THUẬT LẬP TRÌNH\STRUCT\STRUCT\SINHVIEN.CPP|C:\USERS\KUTYC\DESKTOP\KĨ THUẬT LẬP TRÌNH\STRUCT\STRUCT\SOURCE.CPP
C:\USERS\KUTYC\DESKTOP\Kĩ THUậT LậP TRìNH\STRUCT\STRUCT\DEBUG\VC141.PDB
C:\USERS\KUTYC\DESKTOP\Kĩ THUậT LậP TRìNH\STRUCT\STRUCT\DEBUG\VC141.IDB
C:\USERS\KUTYC\DESKTOP\Kĩ THUậT LậP TRìNH\STRUCT\STRUCT\DEBUG\DANHSACHMON.OBJ
C:\USERS\KUTYC\DESKTOP\Kĩ THUậT LậP TRìNH\STRUCT\STRUCT\DEBUG\LOPHOC.OBJ
C:\USERS\KUTYC\DESKTOP\Kĩ THUậT LậP TRìNH\STRUCT\STRUCT\DEBUG\MONHOC.OBJ
C:\USERS\KUTYC\DESKTOP\Kĩ THUậT LậP TRìNH\STRUCT\STRUCT\DEBUG\SINHVIEN.OBJ
C:\USERS\KUTYC\DESKTOP\Kĩ THUậT LậP TRìNH\STRUCT\STRUCT\DEBUG\SOURCE.OBJ
^C:\USERS\KUTYC\DESKTOP\KĨ THUẬT LẬP TRÌNH\STRUCT\STRUCT\LOPHOC.CPP|C:\USERS\KUTYC\DESKTOP\KĨ THUẬT LẬP TRÌNH\STRUCT\STRUCT\SINHVIEN.CPP|C:\USERS\KUTYC\DESKTOP\KĨ THUẬT LẬP TRÌNH\STRUCT\STRUCT\SOURCE.CPP
C:\USERS\KUTYC\DESKTOP\Kĩ THUậT LậP TRìNH\STRUCT\STRUCT\DEBUG\VC141.PDB
C:\USERS\KUTYC\DESKTOP\Kĩ THUậT LậP TRìNH\STRUCT\STRUCT\DEBUG\VC141.IDB
C:\USERS\KUTYC\DESKTOP\Kĩ THUậT LậP TRìNH\STRUCT\STRUCT\DEBUG\SINHVIEN.OBJ
C:\USERS\KUTYC\DESKTOP\Kĩ THUậT LậP TRìNH\STRUCT\STRUCT\DEBUG\LOPHOC.OBJ
