^C:\USERS\KUTYC\DESKTOP\ALGORITHMS\QUAY LUI\LUYỆN TẬP\DEBUG\SOURCE.OBJ
C:\USERS\KUTYC\DESKTOP\ALGORITHMS\QUAY LUI\DEBUG\LUYệN TậP.ILK
C:\USERS\KUTYC\DESKTOP\ALGORITHMS\QUAY LUI\DEBUG\LUYệN TậP.EXE
C:\USERS\KUTYC\DESKTOP\ALGORITHMS\QUAY LUI\DEBUG\LUYỆN TẬP.PDB
