^C:\USERS\KUTYC\DESKTOP\KĨ THUẬT LẬP TRÌNH\CONSTRUCTOR AND DESTRUCTOR\NHAP\DEBUG\DOST.OBJ|C:\USERS\KUTYC\DESKTOP\KĨ THUẬT LẬP TRÌNH\CONSTRUCTOR AND DESTRUCTOR\NHAP\DEBUG\SOURCE.OBJ
C:\USERS\KUTYC\DESKTOP\Kĩ THUậT LậP TRìNH\CONSTRUCTOR AND DESTRUCTOR\DEBUG\NHAP.ILK
C:\USERS\KUTYC\DESKTOP\Kĩ THUậT LậP TRìNH\CONSTRUCTOR AND DESTRUCTOR\DEBUG\NHAP.EXE
C:\USERS\KUTYC\DESKTOP\KĨ THUẬT LẬP TRÌNH\CONSTRUCTOR AND DESTRUCTOR\DEBUG\NHAP.PDB
