^C:\USERS\KUTYC\DESKTOP\KĨ THUẬT LẬP TRÌNH\CLASS_VERSION\CUỘC ĐUA KÌA THÚ _ CLASS VERSION\DANHSACHVDV.CPP
/c /ZI /nologo /W3 /WX- /sdl /Od /Oy- /D WIN32 /D _DEBUG /D _CONSOLE /D _LIB /D _UNICODE /D UNICODE /Gm /EHsc /RTC1 /MDd /GS /fp:precise /Zc:wchar_t /Zc:forScope /Fo"DEBUG\\" /Fd"DEBUG\VC120.PDB" /Gd /TP /analyze- C:\USERS\KUTYC\DESKTOP\KĨ THUẬT LẬP TRÌNH\CLASS_VERSION\CUỘC ĐUA KÌA THÚ _ CLASS VERSION\DANHSACHVDV.CPP
^C:\USERS\KUTYC\DESKTOP\KĨ THUẬT LẬP TRÌNH\CLASS_VERSION\CUỘC ĐUA KÌA THÚ _ CLASS VERSION\MAINCPP.CPP
/c /ZI /nologo /W3 /WX- /sdl /Od /Oy- /D WIN32 /D _DEBUG /D _CONSOLE /D _LIB /D _UNICODE /D UNICODE /Gm /EHsc /RTC1 /MDd /GS /fp:precise /Zc:wchar_t /Zc:forScope /Fo"DEBUG\\" /Fd"DEBUG\VC120.PDB" /Gd /TP /analyze- C:\USERS\KUTYC\DESKTOP\KĨ THUẬT LẬP TRÌNH\CLASS_VERSION\CUỘC ĐUA KÌA THÚ _ CLASS VERSION\MAINCPP.CPP
^C:\USERS\KUTYC\DESKTOP\KĨ THUẬT LẬP TRÌNH\CLASS_VERSION\CUỘC ĐUA KÌA THÚ _ CLASS VERSION\VANDONGVIEN.CPP
/c /ZI /nologo /W3 /WX- /sdl /Od /Oy- /D WIN32 /D _DEBUG /D _CONSOLE /D _LIB /D _UNICODE /D UNICODE /Gm /EHsc /RTC1 /MDd /GS /fp:precise /Zc:wchar_t /Zc:forScope /Fo"DEBUG\\" /Fd"DEBUG\VC120.PDB" /Gd /TP /analyze- C:\USERS\KUTYC\DESKTOP\KĨ THUẬT LẬP TRÌNH\CLASS_VERSION\CUỘC ĐUA KÌA THÚ _ CLASS VERSION\VANDONGVIEN.CPP
