^C:\USERS\KUTYC\DESKTOP\KĨ THUẬT LẬP TRÌNH\PRIORITY QUEU\PRIORITY QUEU_V2\SOURCE.CPP
C:\USERS\KUTYC\DESKTOP\Kĩ THUậT LậP TRìNH\PRIORITY QUEU\PRIORITY QUEU_V2\DEBUG\VC120.PDB
C:\USERS\KUTYC\DESKTOP\Kĩ THUậT LậP TRìNH\PRIORITY QUEU\PRIORITY QUEU_V2\DEBUG\VC120.IDB
C:\USERS\KUTYC\DESKTOP\Kĩ THUậT LậP TRìNH\PRIORITY QUEU\PRIORITY QUEU_V2\DEBUG\SOURCE.OBJ
