^C:\USERS\KUTYC\DESKTOP\ALGORITHMS\CÁC THUẬT TOÁN SINH\SINH CHỈNH HỢP CHẬP K CỦA TẬP N\DEBUG\SOURCE.OBJ
C:\USERS\KUTYC\DESKTOP\ALGORITHMS\CáC THUậT TOáN SINH\DEBUG\SINH CHỉNH HợP CHậP K CủA TậP N.ILK
C:\USERS\KUTYC\DESKTOP\ALGORITHMS\CáC THUậT TOáN SINH\DEBUG\SINH CHỉNH HợP CHậP K CủA TậP N.EXE
C:\USERS\KUTYC\DESKTOP\ALGORITHMS\CÁC THUẬT TOÁN SINH\DEBUG\SINH CHỈNH HỢP CHẬP K CỦA TẬP N.PDB
C:\USERS\KUTYC\DESKTOP\ALGORITHMS\CáC THUậT TOáN SINH\DEBUG\SINH CHỉNH HợP LặP CHậP K CủA TậP N.ILK
C:\USERS\KUTYC\DESKTOP\ALGORITHMS\CáC THUậT TOáN SINH\DEBUG\SINH CHỉNH HợP LặP CHậP K CủA TậP N.EXE
C:\USERS\KUTYC\DESKTOP\ALGORITHMS\CÁC THUẬT TOÁN SINH\DEBUG\SINH CHỈNH HỢP LẶP CHẬP K CỦA TẬP N.PDB
