^C:\USERS\KUTYC\DESKTOP\KĨ THUẬT LẬP TRÌNH\LINKED LIST\NHAP\SOURCE.CPP
C:\USERS\KUTYC\DESKTOP\Kĩ THUậT LậP TRìNH\LINKED LIST\NHAP\DEBUG\VC120.PDB
C:\USERS\KUTYC\DESKTOP\Kĩ THUậT LậP TRìNH\LINKED LIST\NHAP\DEBUG\VC120.IDB
