^C:\USERS\KUTYC\DESKTOP\KĨ THUẬT LẬP TRÌNH\LÀM QUEN CON TRỎ HÀM\CON TRỎ HÀM\SOURCE.CPP
C:\USERS\KUTYC\DESKTOP\Kĩ THUậT LậP TRìNH\LàM QUEN CON TRỏ HàM\CON TRỏ HàM\DEBUG\VC120.PDB
C:\USERS\KUTYC\DESKTOP\Kĩ THUậT LậP TRìNH\LàM QUEN CON TRỏ HàM\CON TRỏ HàM\DEBUG\VC120.IDB
C:\USERS\KUTYC\DESKTOP\Kĩ THUậT LậP TRìNH\LàM QUEN CON TRỏ HàM\CON TRỏ HàM\DEBUG\SOURCE.OBJ
