^C:\USERS\KUTYC\DESKTOP\KĨ THUẬT LẬP TRÌNH\CHUỖI\XÂY DỰNG HÀM XỬ LÝ CHUỖI\DEBUG\SOURCE.OBJ
C:\USERS\KUTYC\DESKTOP\Kĩ THUậT LậP TRìNH\CHUỗI\DEBUG\XâY DựNG HàM Xử Lý CHUỗI.ILK
C:\USERS\KUTYC\DESKTOP\Kĩ THUậT LậP TRìNH\CHUỗI\DEBUG\XâY DựNG HàM Xử Lý CHUỗI.EXE
C:\USERS\KUTYC\DESKTOP\KĨ THUẬT LẬP TRÌNH\CHUỖI\DEBUG\XÂY DỰNG HÀM XỬ LÝ CHUỖI.PDB
