^C:\USERS\KUTYC\DESKTOP\ALGORITHMS\QUAY LUI\XẾP HẬU VERSION2\DEBUG\SOURCE.OBJ
C:\USERS\KUTYC\DESKTOP\ALGORITHMS\QUAY LUI\DEBUG\XếP HậU VERSION2.ILK
C:\USERS\KUTYC\DESKTOP\ALGORITHMS\QUAY LUI\DEBUG\XếP HậU VERSION2.EXE
C:\USERS\KUTYC\DESKTOP\ALGORITHMS\QUAY LUI\DEBUG\XẾP HẬU VERSION2.PDB
